<!DOCTYPE svg PUBLIC "-//W3C//DTD SVG 1.1//EN" "http://www.w3.org/Graphics/SVG/1.1/DTD/svg11.dtd">
<!-- Uploaded to: SVG Repo, www.svgrepo.com, Transformed by: SVG Repo Mixer Tools -->
<svg width="800px" height="800px" viewBox="0 0 24 24" fill="none" xmlns="http://www.w3.org/2000/svg" stroke="#000000">
<g id="SVGRepo_bgCarrier" stroke-width="0"/>
<g id="SVGRepo_tracerCarrier" stroke-linecap="round" stroke-linejoin="round"/>
<g id="SVGRepo_iconCarrier"> <g id="Navigation / Flag"> <path id="Vector" d="M4 21V15.6871M4 15.6871C9.81818 11.1377 14.1818 20.2363 20 15.6869V4.31347C14.1818 8.86284 9.81818 -0.236103 4 4.31327V15.6871Z" stroke="#c01c28" stroke-width="2" stroke-linecap="round" stroke-linejoin="round"/> </g> </g>
</svg>